/Users/pinar.ormeci/Desktop/AppiumExample/src/main/java/utils/ScreenshotUtils.java
/Users/pinar.ormeci/Desktop/AppiumExample/src/main/java/pages/BasketPage.java
/Users/pinar.ormeci/Desktop/AppiumExample/src/main/java/utils/FileResourceUtils.java
/Users/pinar.ormeci/Desktop/AppiumExample/src/main/java/pages/ProductPhotoPage.java
/Users/pinar.ormeci/Desktop/AppiumExample/src/main/java/extension/TestWatcherExtension.java
/Users/pinar.ormeci/Desktop/AppiumExample/src/main/java/pages/ProductCategoriesPage.java
/Users/pinar.ormeci/Desktop/AppiumExample/src/main/java/utils/Direction.java
/Users/pinar.ormeci/Desktop/AppiumExample/src/main/java/utils/MobileCapability.java
/Users/pinar.ormeci/Desktop/AppiumExample/src/main/java/pages/CategoriesPage.java
/Users/pinar.ormeci/Desktop/AppiumExample/src/main/java/pages/ProfilePage.java
/Users/pinar.ormeci/Desktop/AppiumExample/src/main/java/pages/LoginPage.java
/Users/pinar.ormeci/Desktop/AppiumExample/src/main/java/annotation/MyDriver.java
/Users/pinar.ormeci/Desktop/AppiumExample/src/main/java/pages/HomePage.java
/Users/pinar.ormeci/Desktop/AppiumExample/src/main/java/pages/BasePage.java
/Users/pinar.ormeci/Desktop/AppiumExample/src/main/java/pages/ProductListPage.java
